110,2.181818,0.5454546
2,1,0
2,3,0
3,1,0
3,3,0
4,1,0
4,2,0
4,3,0
5,3,0
6,1,0
6,2,0
6,3,0
7,3,0
8,2,0
8,4,0
9,3,0
10,1,0
10,2,0
10,3,0
11,1,2
12,1,1
13,1,0
13,3,0
13,4,0
14,2,0
14,4,0
15,2,0
15,4,0
16,2,0
16,4,0
17,2,0
17,4,0
18,2,0
18,4,0
19,2,2
19,4,1
20,2,0
20,4,0
21,2,3
21,4,4
22,2,0
22,2,0
22,3,0
23,2,0
23,4,0
24,2,0
24,3,0
25,2,0
25,4,0
26,2,0
26,3,0
27,2,3
28,1,4
29,1,3
30,1,4
31,1,0
31,4,0
32,1,0
32,4,1
33,1,2
33,4,0
34,1,0
34,2,0
34,3,0
35,1,0
35,4,0
36,1,0
37,1,0
37,4,0
38,1,0
38,4,0
39,1,0
40,1,3
41,1,4
41,3,3
42,4,4
43,3,5
