120,2,0.5
2,1,0
2,3,0
2,4,0
3,1,0
3,3,0
3,4,0
4,1,0
4,3,0
4,4,0
5,1,0
5,3,0
5,4,0
6,1,0
6,3,0
6,4,0
7,1,0
7,3,0
7,4,0
8,1,1
8,3,2
9,1,1
9,3,2
10,1,0
10,4,0
11,1,0
11,3,0
12,1,0
12,3,0
12,4,0
13,1,0
13,3,0
13,4,0
14,1,0
14,3,0
15,1,0
15,3,0
15,4,0
16,1,0
16,3,0
17,1,0
17,3,0
17,4,0
18,1,0
18,3,0
19,1,0
19,3,0
19,4,0
20,1,1
20,3,2
21,1,1
21,3,2
22,1,0
22,3,0
22,4,0
23,1,0
23,3,0
23,4,0
24,1,0
24,3,0
24,4,0
25,1,0
25,3,0
25,4,0
26,1,3
27,1,4
27,3,2
27,4,1
28,1,3
29,1,4
30,1,0
31,1,0
31,3,5
