210,1.142857,0.2857143
3,1,0
4,1,0
5,1,0
6,1,0
7,2,3
7,3,4
8,2,3
8,3,4
9,1,0
9,3,1
10,1,2
11,1,0
12,1,0
13,1,0
14,1,0
15,2,3
15,3,4
16,2,3
16,3,4
17,1,0
17,3,1
18,1,2
19,1,0
20,1,0
20,4,0
21,2,0
22,1,0
22,4,0
23,2,0
24,1,0
25,1,0
25,3,1
26,1,2
27,1,0
28,1,0
28,4,0
29,2,0
30,1,0
30,4,0
31,2,0
32,2,0
33,1,0
33,3,1
34,1,2
35,2,0
36,1,0
36,4,0
37,2,0
38,1,0
38,4,0
39,2,1
40,1,2
40,4,1
41,2,2
42,1,1
42,4,2
43,2,0
44,1,0
44,4,0
45,2,0
46,1,0
46,4,0
47,2,0
48,1,0
48,4,0
49,2,0
50,1,0
50,4,0
51,2,3
52,4,4
53,2,3
54,4,4
55,2,3
56,4,4
57,2,3
58,4,4
59,2,0
60,1,0
60,4,0
61,2,0
62,1,0
62,4,0
63,2,3
63,3,4
64,2,3
64,3,4
65,2,0
65,4,1
66,2,2
67,2,0
68,1,0
68,4,0
69,2,0
70,1,0
70,4,0
71,2,3
71,3,4
72,2,3
72,3,4
73,2,1
74,1,2
75,1,0
75,3,1
76,1,2
76,2,5
